%YAML 1.1
%TAG !u! tag:unity3d.com,2011:
--- !u!114 &11400000
MonoBehaviour:
  m_ObjectHideFlags: 0
  m_CorrespondingSourceObject: {fileID: 0}
  m_PrefabInstance: {fileID: 0}
  m_PrefabAsset: {fileID: 0}
  m_GameObject: {fileID: 0}
  m_Enabled: 1
  m_EditorHideFlags: 0
  m_Script: {fileID: 11500000, guid: 9f356ebe739f14b409528f56ab8ce135, type: 3}
  m_Name: Backpack
  m_EditorClassIdentifier: 
  itemName: Backpack
  sprite: {fileID: 21300000, guid: b429da4a8b05dac4fae4a9071b7ab071, type: 3}
  size: {x: 2, y: 2}
  <Stackable>k__BackingField: 0
  <maxStackSize>k__BackingField: 0
  myInvSize: {x: 2, y: 3}
